{
  "data": [
    {
      "id": "1",
      "name": "In Rainbows",
      "band": {
        "id": "1",
        "name": "Radiohead"
      },
      "year": 2007,
      "label": {
        "id": "SR",
        "name": "Self-released"
      },
      "genre": {
        "id": "AR",
        "name": "Alternative rock"
      }
        
    },
    {
      "id": "2",
      "name": "Cuando Ella Se Va",
      "band": {
        "id": "2",
        "name": "Cano"
      },
      "year": 2021,
      "label": {
        "id": "WM",
        "name": "WM Spain"
      },
      "genre": {
        "id": "MU",
        "name": "Musica Urbana"
      }
        
    },
    {
      "id": "3",
      "name": "No me lo creo",
      "band": {
        "id": "3",
        "name": "Nyno Vargas"
      },
      "year": 2021,
      "label": {
        "id": "WM",
        "name": "WM Spain"
      },
      "genre": {
        "id": "FU",
        "name": "Flamenco Urbano"
      }
        
    }
   
      
  ]
}