[
  {
    "name": "The Suburbs",
    "band": {
      "id":"10"
    },
    "year": 2010,
    "label": {
      "id":"MR"
    },
    "genre": {
      "id": "IN"
    }
  },
  {
    "name": "Natos y Waor",
    "band": {
      "id":"11"
    },
    "year": 2010,
    "label": {
      "id":"MR"
    },
    "genre": {
      "id": "IN"
    }
  },
  {
    "name": "Los Chunguitos",
    "band": {
      "id":"12"
    },
    "year": 1973,
    "label": {
      "id":"MR"
    },
    "genre": {
      "id": "IN"
    }
  }
]